/home/vish/IdeaProjects/kafka-app/schema_avro/src/main/java/com/example/basicavro/ProducerExample.java
/home/vish/IdeaProjects/kafka-app/schema_avro/target/generated-sources/com/example/basicavro/Payment.java
/home/vish/IdeaProjects/kafka-app/schema_avro/src/main/java/com/example/basicavro/ConsumerExample.java
